﻿[
 {
   "internalPartyID": 1,
   "externalPartyID": "15672",
   "partyAID": "15672",
   "partyBID": "1",
   "tradeID": 405,
   "tradeDate": "2019-04-02",
   "executionDateTime": "2019-04-02 10:12",
   "executionTimeZone": "CET",
   "effectiveDate": "2019-04-02",
   "terminationDate": "2019-04-02",
   "settlementCCY": "USD",
   "periodMultiplier": 1,
   "period": "Term",
   "balanceOfFirstPeriod": false,
   "oilType": "CrudeOil",
   "oilGrade": "WTI",
   "pipelineName": "TeppcoSeawayCrude",
   "withdrawalPoint": "Cushing",
   "deliverableByBarge": false,
   "risk": "FOB",
   "quantityUnit": "BBL",
   "quantityFrequency": "PerCalculationPeriod",
   "quantity": 10000,
   "instrumentId": "WTI-ForwardCurve",
   "specifiedPrice": "Settlement",
   "dayType": "CommodityBusiness",
   "dayDistribution": "All"
 }
]